<?xml version="1.0" encoding="utf-8"?>
<!-- Generator: Adobe Illustrator 21.1.0, SVG Export Plug-In . SVG Version: 6.00 Build 0)  -->
<svg version="1.1" id="Layer_1" xmlns="http://www.w3.org/2000/svg" xmlns:xlink="http://www.w3.org/1999/xlink" x="0px" y="0px"
	 viewBox="0 0 158 33.3" style="enable-background:new 0 0 158 33.3;" xml:space="preserve">
<style type="text/css">
	.st0{fill:#FFFFFF;}
</style>
<g>
	<path class="st0" d="M65.6,27.9c0-0.4-0.1-0.7-0.3-0.9c-0.2-0.2-0.5-0.3-0.9-0.3c-0.3,0-0.5,0-0.8,0.1c-0.2,0.1-0.4,0.2-0.6,0.4
		l-0.4-0.4c0.2-0.2,0.4-0.4,0.8-0.5c0.3-0.1,0.7-0.2,1.1-0.2c0.3,0,0.5,0,0.7,0.1s0.4,0.2,0.6,0.3c0.2,0.1,0.3,0.3,0.4,0.5
		c0.1,0.2,0.1,0.5,0.1,0.7v2c0,0.2,0,0.4,0,0.6c0,0.2,0,0.4,0.1,0.5h-0.6c0-0.1,0-0.2,0-0.4c0-0.1,0-0.3,0-0.4h0
		c-0.2,0.3-0.5,0.5-0.7,0.7c-0.3,0.1-0.6,0.2-1,0.2c-0.2,0-0.4,0-0.6-0.1c-0.2,0-0.4-0.1-0.5-0.2c-0.2-0.1-0.3-0.3-0.4-0.4
		c-0.1-0.2-0.2-0.4-0.2-0.7c0-0.4,0.1-0.6,0.3-0.8c0.2-0.2,0.4-0.4,0.7-0.5c0.3-0.1,0.7-0.2,1-0.2c0.4,0,0.8,0,1.2,0V27.9z
		 M65.4,28.6c-0.3,0-0.6,0-0.8,0c-0.3,0-0.5,0.1-0.8,0.1c-0.2,0.1-0.4,0.2-0.6,0.3c-0.1,0.1-0.2,0.3-0.2,0.5c0,0.2,0,0.3,0.1,0.4
		c0.1,0.1,0.1,0.2,0.3,0.3c0.1,0.1,0.2,0.1,0.4,0.1s0.3,0,0.4,0c0.2,0,0.4,0,0.6-0.1c0.2-0.1,0.3-0.2,0.5-0.3
		c0.1-0.1,0.2-0.3,0.3-0.5c0.1-0.2,0.1-0.4,0.1-0.6v-0.3H65.4z"/>
	<path class="st0" d="M72.5,26.8h-1.3v2.7c0,0.2,0,0.3,0,0.4c0,0.1,0.1,0.2,0.1,0.3c0.1,0.1,0.1,0.1,0.2,0.1c0.1,0,0.2,0,0.3,0
		c0.1,0,0.2,0,0.3,0c0.1,0,0.2-0.1,0.3-0.1l0,0.6c-0.1,0-0.2,0.1-0.4,0.1c-0.1,0-0.3,0-0.4,0c-0.1,0-0.3,0-0.4,0
		c-0.1,0-0.3-0.1-0.4-0.2c-0.1-0.1-0.2-0.2-0.3-0.4c-0.1-0.2-0.1-0.4-0.1-0.6v-2.9h-1v-0.6h1V25h0.7v1.3h1.3V26.8z"/>
	<path class="st0" d="M73.6,27.3c0-0.1,0-0.3,0-0.5c0-0.2,0-0.4,0-0.5h0.6c0,0.1,0,0.3,0,0.4c0,0.2,0,0.3,0,0.4h0
		c0.1-0.3,0.3-0.5,0.6-0.7c0.3-0.2,0.6-0.3,0.9-0.3c0.1,0,0.2,0,0.2,0c0.1,0,0.1,0,0.2,0l-0.1,0.6c0,0-0.1,0-0.2,0
		c-0.1,0-0.2,0-0.3,0c-0.2,0-0.4,0-0.5,0.1c-0.2,0.1-0.3,0.2-0.4,0.3c-0.1,0.1-0.2,0.3-0.3,0.5c-0.1,0.2-0.1,0.5-0.1,0.8v2.4h-0.7
		V27.3z"/>
	<path class="st0" d="M78.1,24.5c0,0.1,0,0.3-0.1,0.3c-0.1,0.1-0.2,0.1-0.3,0.1c-0.1,0-0.2,0-0.3-0.1c-0.1-0.1-0.1-0.2-0.1-0.3
		c0-0.1,0-0.3,0.1-0.3c0.1-0.1,0.2-0.1,0.3-0.1c0.1,0,0.2,0,0.3,0.1C78,24.2,78.1,24.3,78.1,24.5z M77.9,30.9h-0.7v-4.6h0.7V30.9z"
		/>
	<path class="st0" d="M81.7,30.9h-0.7L79,26.3h0.8l1.5,3.9h0l1.5-3.9h0.7L81.7,30.9z"/>
	<path class="st0" d="M87.5,27.9c0-0.4-0.1-0.7-0.3-0.9c-0.2-0.2-0.5-0.3-0.9-0.3c-0.3,0-0.5,0-0.8,0.1s-0.4,0.2-0.6,0.4l-0.4-0.4
		c0.2-0.2,0.4-0.4,0.8-0.5c0.3-0.1,0.7-0.2,1.1-0.2c0.3,0,0.5,0,0.7,0.1c0.2,0.1,0.4,0.2,0.6,0.3c0.2,0.1,0.3,0.3,0.4,0.5
		c0.1,0.2,0.1,0.5,0.1,0.7v2c0,0.2,0,0.4,0,0.6c0,0.2,0,0.4,0.1,0.5h-0.6c0-0.1,0-0.2,0-0.4c0-0.1,0-0.3,0-0.4h0
		c-0.2,0.3-0.5,0.5-0.7,0.7c-0.3,0.1-0.6,0.2-1,0.2c-0.2,0-0.4,0-0.6-0.1c-0.2,0-0.4-0.1-0.5-0.2c-0.2-0.1-0.3-0.3-0.4-0.4
		c-0.1-0.2-0.2-0.4-0.2-0.7c0-0.4,0.1-0.6,0.3-0.8c0.2-0.2,0.4-0.4,0.7-0.5c0.3-0.1,0.7-0.2,1-0.2c0.4,0,0.8,0,1.2,0V27.9z
		 M87.3,28.6c-0.3,0-0.6,0-0.8,0c-0.3,0-0.5,0.1-0.8,0.1c-0.2,0.1-0.4,0.2-0.6,0.3c-0.1,0.1-0.2,0.3-0.2,0.5c0,0.2,0,0.3,0.1,0.4
		c0.1,0.1,0.1,0.2,0.3,0.3c0.1,0.1,0.2,0.1,0.4,0.1s0.3,0,0.4,0c0.2,0,0.4,0,0.6-0.1c0.2-0.1,0.3-0.2,0.5-0.3
		c0.1-0.1,0.2-0.3,0.3-0.5c0.1-0.2,0.1-0.4,0.1-0.6v-0.3H87.3z"/>
	<path class="st0" d="M90,31.8c0.2,0.2,0.4,0.4,0.8,0.6c0.3,0.2,0.7,0.2,1,0.2c0.3,0,0.6,0,0.8-0.1c0.2-0.1,0.4-0.2,0.6-0.4
		c0.1-0.2,0.2-0.4,0.3-0.6c0.1-0.2,0.1-0.5,0.1-0.7V30h0c-0.2,0.3-0.4,0.5-0.8,0.7c-0.3,0.2-0.7,0.2-1,0.2c-0.4,0-0.7-0.1-1-0.2
		c-0.3-0.1-0.5-0.3-0.8-0.5c-0.2-0.2-0.4-0.5-0.5-0.7c-0.1-0.3-0.2-0.6-0.2-0.9c0-0.3,0.1-0.6,0.2-0.9c0.1-0.3,0.3-0.5,0.5-0.8
		c0.2-0.2,0.5-0.4,0.8-0.5c0.3-0.1,0.6-0.2,1-0.2c0.3,0,0.7,0.1,1,0.2c0.3,0.2,0.6,0.4,0.8,0.7h0v-0.8h0.7v4.6c0,0.3,0,0.5-0.1,0.8
		c-0.1,0.3-0.2,0.5-0.4,0.8c-0.2,0.2-0.4,0.4-0.8,0.6c-0.3,0.2-0.7,0.2-1.3,0.2c-0.4,0-0.8-0.1-1.2-0.3c-0.4-0.2-0.7-0.4-1-0.7
		L90,31.8z M90.2,28.5c0,0.2,0,0.5,0.1,0.7c0.1,0.2,0.2,0.4,0.3,0.6c0.1,0.2,0.3,0.3,0.6,0.4c0.2,0.1,0.5,0.1,0.7,0.1
		c0.3,0,0.5,0,0.7-0.1c0.2-0.1,0.4-0.2,0.6-0.4c0.2-0.2,0.3-0.3,0.4-0.6c0.1-0.2,0.1-0.5,0.1-0.7c0-0.2,0-0.5-0.1-0.7
		c-0.1-0.2-0.2-0.4-0.4-0.6c-0.2-0.2-0.3-0.3-0.6-0.4c-0.2-0.1-0.5-0.1-0.7-0.1c-0.3,0-0.5,0-0.7,0.1c-0.2,0.1-0.4,0.2-0.6,0.4
		c-0.1,0.2-0.3,0.4-0.3,0.6C90.2,28.1,90.2,28.3,90.2,28.5z"/>
	<path class="st0" d="M100.6,28.6c0,0.4-0.1,0.7-0.2,1c-0.1,0.3-0.3,0.6-0.5,0.8c-0.2,0.2-0.5,0.4-0.8,0.5c-0.3,0.1-0.6,0.2-1,0.2
		c-0.4,0-0.7-0.1-1-0.2c-0.3-0.1-0.6-0.3-0.8-0.5c-0.2-0.2-0.4-0.5-0.5-0.8c-0.1-0.3-0.2-0.6-0.2-1c0-0.4,0.1-0.7,0.2-1
		c0.1-0.3,0.3-0.6,0.5-0.8c0.2-0.2,0.5-0.4,0.8-0.5c0.3-0.1,0.6-0.2,1-0.2c0.4,0,0.7,0.1,1,0.2c0.3,0.1,0.6,0.3,0.8,0.5
		c0.2,0.2,0.4,0.5,0.5,0.8C100.6,27.9,100.6,28.2,100.6,28.6z M99.9,28.6c0-0.3,0-0.5-0.1-0.7c-0.1-0.2-0.2-0.4-0.4-0.6
		c-0.2-0.2-0.3-0.3-0.6-0.4c-0.2-0.1-0.5-0.1-0.7-0.1c-0.3,0-0.5,0-0.7,0.1c-0.2,0.1-0.4,0.2-0.6,0.4c-0.2,0.2-0.3,0.4-0.4,0.6
		c-0.1,0.2-0.1,0.5-0.1,0.7c0,0.3,0,0.5,0.1,0.7c0.1,0.2,0.2,0.4,0.4,0.6c0.2,0.2,0.3,0.3,0.6,0.4c0.2,0.1,0.5,0.1,0.7,0.1
		c0.3,0,0.5,0,0.7-0.1c0.2-0.1,0.4-0.2,0.6-0.4c0.2-0.2,0.3-0.4,0.4-0.6C99.9,29.1,99.9,28.9,99.9,28.6z"/>
	<path class="st0" d="M107.9,27.3c-0.1-0.2-0.3-0.3-0.5-0.4c-0.2-0.1-0.4-0.2-0.7-0.2c-0.3,0-0.5,0-0.7,0.1
		c-0.2,0.1-0.4,0.2-0.6,0.4c-0.2,0.2-0.3,0.4-0.4,0.6c-0.1,0.2-0.1,0.5-0.1,0.7c0,0.3,0,0.5,0.1,0.7c0.1,0.2,0.2,0.4,0.4,0.6
		c0.2,0.2,0.3,0.3,0.6,0.4c0.2,0.1,0.5,0.1,0.7,0.1c0.3,0,0.5-0.1,0.8-0.2c0.2-0.1,0.4-0.3,0.5-0.4l0.5,0.4
		c-0.2,0.2-0.4,0.4-0.7,0.6c-0.3,0.1-0.6,0.2-1,0.2c-0.4,0-0.7-0.1-1-0.2c-0.3-0.1-0.6-0.3-0.8-0.5c-0.2-0.2-0.4-0.5-0.5-0.8
		c-0.1-0.3-0.2-0.6-0.2-1c0-0.4,0.1-0.7,0.2-1c0.1-0.3,0.3-0.6,0.5-0.8c0.2-0.2,0.5-0.4,0.8-0.5c0.3-0.1,0.6-0.2,1-0.2
		c0.3,0,0.6,0.1,0.9,0.2c0.3,0.1,0.6,0.3,0.8,0.6L107.9,27.3z"/>
	<path class="st0" d="M114.1,28.6c0,0.4-0.1,0.7-0.2,1c-0.1,0.3-0.3,0.6-0.5,0.8c-0.2,0.2-0.5,0.4-0.8,0.5c-0.3,0.1-0.6,0.2-1,0.2
		c-0.4,0-0.7-0.1-1-0.2c-0.3-0.1-0.6-0.3-0.8-0.5c-0.2-0.2-0.4-0.5-0.5-0.8c-0.1-0.3-0.2-0.6-0.2-1c0-0.4,0.1-0.7,0.2-1
		c0.1-0.3,0.3-0.6,0.5-0.8c0.2-0.2,0.5-0.4,0.8-0.5c0.3-0.1,0.6-0.2,1-0.2c0.4,0,0.7,0.1,1,0.2c0.3,0.1,0.6,0.3,0.8,0.5
		c0.2,0.2,0.4,0.5,0.5,0.8C114,27.9,114.1,28.2,114.1,28.6z M113.4,28.6c0-0.3,0-0.5-0.1-0.7c-0.1-0.2-0.2-0.4-0.4-0.6
		c-0.2-0.2-0.3-0.3-0.6-0.4c-0.2-0.1-0.5-0.1-0.7-0.1c-0.3,0-0.5,0-0.7,0.1c-0.2,0.1-0.4,0.2-0.6,0.4c-0.2,0.2-0.3,0.4-0.4,0.6
		c-0.1,0.2-0.1,0.5-0.1,0.7c0,0.3,0,0.5,0.1,0.7c0.1,0.2,0.2,0.4,0.4,0.6c0.2,0.2,0.3,0.3,0.6,0.4c0.2,0.1,0.5,0.1,0.7,0.1
		c0.3,0,0.5,0,0.7-0.1c0.2-0.1,0.4-0.2,0.6-0.4c0.2-0.2,0.3-0.4,0.4-0.6C113.3,29.1,113.4,28.9,113.4,28.6z"/>
	<path class="st0" d="M116.1,27.1c0.1-0.3,0.3-0.5,0.6-0.7c0.3-0.2,0.6-0.3,0.9-0.3c0.1,0,0.3,0,0.4,0c0.1,0,0.3,0.1,0.4,0.2
		c0.1,0.1,0.2,0.2,0.4,0.3c0.1,0.1,0.2,0.3,0.3,0.5c0.2-0.3,0.4-0.6,0.6-0.7c0.3-0.2,0.6-0.3,1-0.3c0.6,0,1,0.2,1.3,0.5
		c0.3,0.4,0.4,0.8,0.4,1.4v2.8h-0.7v-2.6c0-0.5-0.1-0.9-0.3-1.2c-0.2-0.3-0.5-0.4-0.9-0.4c-0.2,0-0.5,0-0.6,0.1
		c-0.2,0.1-0.3,0.2-0.4,0.4c-0.1,0.2-0.2,0.3-0.2,0.6c0,0.2-0.1,0.4-0.1,0.6v2.5h-0.7v-2.7c0-0.2,0-0.4,0-0.6c0-0.2-0.1-0.3-0.2-0.5
		c-0.1-0.1-0.2-0.2-0.3-0.3c-0.1-0.1-0.3-0.1-0.6-0.1c-0.2,0-0.3,0-0.5,0.1c-0.2,0.1-0.3,0.2-0.4,0.3c-0.1,0.1-0.2,0.3-0.3,0.6
		c-0.1,0.2-0.1,0.5-0.1,0.8v2.4h-0.7v-3.6c0-0.1,0-0.3,0-0.5c0-0.2,0-0.4,0-0.5h0.6c0,0.1,0,0.3,0,0.4
		C116.1,26.8,116.1,27,116.1,27.1L116.1,27.1z"/>
	<path class="st0" d="M124.8,33.3h-0.7v-7h0.7v0.8h0c0.2-0.3,0.4-0.5,0.8-0.7c0.3-0.2,0.6-0.2,1-0.2c0.4,0,0.7,0.1,1,0.2
		c0.3,0.1,0.5,0.3,0.8,0.5s0.4,0.5,0.5,0.8c0.1,0.3,0.2,0.6,0.2,1c0,0.3-0.1,0.7-0.2,1c-0.1,0.3-0.3,0.6-0.5,0.8
		c-0.2,0.2-0.5,0.4-0.8,0.5c-0.3,0.1-0.6,0.2-1,0.2c-0.3,0-0.7-0.1-1-0.2c-0.3-0.2-0.6-0.4-0.8-0.7h0V33.3z M128.3,28.6
		c0-0.3,0-0.5-0.1-0.7c-0.1-0.2-0.2-0.4-0.3-0.6s-0.3-0.3-0.6-0.4c-0.2-0.1-0.5-0.1-0.7-0.1c-0.3,0-0.5,0-0.7,0.1
		c-0.2,0.1-0.4,0.2-0.6,0.4c-0.2,0.2-0.3,0.4-0.4,0.6c-0.1,0.2-0.1,0.5-0.1,0.7c0,0.3,0,0.5,0.1,0.7c0.1,0.2,0.2,0.4,0.4,0.6
		c0.2,0.2,0.3,0.3,0.6,0.4c0.2,0.1,0.5,0.1,0.7,0.1c0.3,0,0.5,0,0.7-0.1c0.2-0.1,0.4-0.2,0.6-0.4s0.3-0.4,0.3-0.6
		C128.2,29.1,128.3,28.9,128.3,28.6z"/>
	<path class="st0" d="M133.3,27.9c0-0.4-0.1-0.7-0.3-0.9c-0.2-0.2-0.5-0.3-0.9-0.3c-0.3,0-0.5,0-0.8,0.1s-0.4,0.2-0.6,0.4l-0.4-0.4
		c0.2-0.2,0.4-0.4,0.8-0.5c0.3-0.1,0.7-0.2,1.1-0.2c0.3,0,0.5,0,0.7,0.1c0.2,0.1,0.4,0.2,0.6,0.3c0.2,0.1,0.3,0.3,0.4,0.5
		c0.1,0.2,0.1,0.5,0.1,0.7v2c0,0.2,0,0.4,0,0.6c0,0.2,0,0.4,0.1,0.5h-0.6c0-0.1,0-0.2,0-0.4c0-0.1,0-0.3,0-0.4h0
		c-0.2,0.3-0.5,0.5-0.7,0.7c-0.3,0.1-0.6,0.2-1,0.2c-0.2,0-0.4,0-0.6-0.1c-0.2,0-0.4-0.1-0.5-0.2c-0.2-0.1-0.3-0.3-0.4-0.4
		c-0.1-0.2-0.2-0.4-0.2-0.7c0-0.4,0.1-0.6,0.3-0.8c0.2-0.2,0.4-0.4,0.7-0.5c0.3-0.1,0.7-0.2,1-0.2c0.4,0,0.8,0,1.2,0V27.9z
		 M133.1,28.6c-0.3,0-0.6,0-0.8,0c-0.3,0-0.5,0.1-0.8,0.1c-0.2,0.1-0.4,0.2-0.6,0.3c-0.1,0.1-0.2,0.3-0.2,0.5c0,0.2,0,0.3,0.1,0.4
		c0.1,0.1,0.1,0.2,0.3,0.3c0.1,0.1,0.2,0.1,0.4,0.1s0.3,0,0.4,0c0.2,0,0.4,0,0.6-0.1c0.2-0.1,0.3-0.2,0.5-0.3
		c0.1-0.1,0.2-0.3,0.3-0.5c0.1-0.2,0.1-0.4,0.1-0.6v-0.3H133.1z"/>
	<path class="st0" d="M136.2,26.3c0,0.1,0,0.3,0,0.4c0,0.2,0,0.3,0,0.4h0c0.1-0.3,0.3-0.5,0.6-0.7c0.3-0.2,0.6-0.3,0.9-0.3
		c0.6,0,1,0.2,1.3,0.5c0.3,0.4,0.4,0.8,0.4,1.4v2.8h-0.7v-2.6c0-0.2,0-0.5-0.1-0.7c0-0.2-0.1-0.4-0.2-0.5c-0.1-0.1-0.2-0.3-0.4-0.3
		c-0.2-0.1-0.4-0.1-0.6-0.1c-0.2,0-0.4,0-0.5,0.1c-0.2,0.1-0.3,0.2-0.5,0.3c-0.1,0.1-0.2,0.3-0.3,0.6c-0.1,0.2-0.1,0.5-0.1,0.8v2.4
		h-0.7v-3.6c0-0.1,0-0.3,0-0.5c0-0.2,0-0.4,0-0.5H136.2z"/>
	<path class="st0" d="M142.8,30.2L142.8,30.2l1.5-3.9h0.7l-2.3,5.8c-0.1,0.4-0.3,0.6-0.5,0.9c-0.2,0.2-0.5,0.3-0.9,0.3
		c-0.2,0-0.4,0-0.6-0.1l0.1-0.6c0.2,0.1,0.3,0.1,0.5,0.1c0.2,0,0.4-0.1,0.5-0.2c0.1-0.1,0.2-0.3,0.3-0.6l0.4-1l-2-4.6h0.8
		L142.8,30.2z"/>
</g>
<g>
	<g>
		<g>
			<path class="st0" d="M92.8,6.5c-3.6,0-6.5,2.9-6.5,6.5c0,3.6,2.9,6.5,6.5,6.5c3.6,0,6.5-2.9,6.5-6.5C99.3,9.4,96.4,6.5,92.8,6.5
				 M92.8,16.3c-1.8,0-3.3-1.5-3.3-3.3c0-1.8,1.5-3.3,3.3-3.3c1.8,0,3.3,1.5,3.3,3.3C96,14.9,94.6,16.3,92.8,16.3"/>
		</g>
		<g>
			<path class="st0" d="M107.1,6.5c-3.6,0-6.5,2.9-6.5,6.5c0,3.6,2.9,6.5,6.5,6.5s6.5-2.9,6.5-6.5C113.6,9.4,110.7,6.5,107.1,6.5
				 M107.1,16.3c-1.8,0-3.3-1.5-3.3-3.3s1.5-3.3,3.3-3.3c1.8,0,3.3,1.5,3.3,3.3S108.9,16.3,107.1,16.3"/>
		</g>
		<g>
			<path class="st0" d="M129.3,1.6c0,0.9-0.7,1.6-1.6,1.6c-0.9,0-1.6-0.7-1.6-1.6c0-0.9,0.7-1.6,1.6-1.6
				C128.6,0,129.3,0.7,129.3,1.6"/>
		</g>
	</g>
	<g>
		<path class="st0" d="M27.4,13.1c0,0,0-0.1,0-0.1v6.6h0V13.1z"/>
	</g>
	<g>
		<path class="st0" d="M24.1,13C24.1,13,24.1,13,24.1,13L24.1,13C24.1,13.1,24.1,13.1,24.1,13"/>
	</g>
	<g>
		<path class="st0" d="M26.4,9.6c-1.1-1.9-3.2-3.1-5.6-3.1c-3.6,0-6.5,2.9-6.5,6.5c0,3.6,2.9,6.5,6.5,6.5c1.2,0,2.3-0.3,3.3-0.9v0.9
			h3.3l0,0V13C27.4,11.8,27,10.6,26.4,9.6 M20.9,16.3c-1.8,0-3.3-1.5-3.3-3.3c0-1.8,1.5-3.3,3.3-3.3c1.8,0,3.2,1.4,3.3,3.2
			c0,0,0,0,0,0c0,0,0,0,0,0C24.1,14.9,22.7,16.3,20.9,16.3"/>
	</g>
	<g>
		<path class="st0" d="M6.5,6.5c-1.2,0-2.3,0.3-3.3,0.9l0-6.4V0H0v1v3.5v5.5v1V13l0,0l0,0v0l0,0c0,3.6,2.9,6.5,6.5,6.5
			c3.6,0,6.5-2.9,6.5-6.5C13,9.4,10.1,6.5,6.5,6.5 M6.5,16.3c-1.8,0-3.3-1.5-3.3-3.3c0-1.8,1.5-3.3,3.3-3.3c1.8,0,3.3,1.5,3.3,3.3
			C9.8,14.9,8.3,16.3,6.5,16.3"/>
	</g>
	<g>
		<path class="st0" d="M40.1,11.4L40.1,11.4h-2.1l0,0l-5.7,0c0.6-1,1.6-1.6,2.8-1.6c0.9,0,1.6,0.3,2.2,0.9h0l2.3-2.3
			c-1.2-1.1-2.8-1.8-4.5-1.8c-3.6,0-6.5,2.9-6.5,6.5v0v0c0,0.9,0.7,1.6,1.6,1.6h0h2.1c0,0,0,0,0,0l5.7,0c-0.6,1-1.6,1.6-2.8,1.6
			c-0.8,0-1.6-0.3-2.2-0.9h0l-2.3,2.3c1.2,1.1,2.8,1.8,4.5,1.8c3.6,0,6.5-2.9,6.5-6.5c0,0,0,0,0,0C41.7,12.2,41,11.4,40.1,11.4"/>
	</g>
	<g>
		<path class="st0" d="M118.2,15.4L118.2,15.4L118.2,15.4z"/>
	</g>
	<g>
		<path class="st0" d="M118.2,10.7L118.2,10.7L118.2,10.7z"/>
	</g>
	<g>
		<polygon class="st0" points="120.5,13 122.5,11.1 124.7,8.8 122.4,6.5 122.4,6.5 118.2,10.7 118.2,10.7 118.2,10.7 118.2,4.9 
			118.2,4.9 118.2,3.2 118.2,0 114.9,0 114.9,8.6 114.9,10.1 114.9,12.1 114.9,12.8 114.9,14 114.9,14.1 114.9,16.9 114.9,17.5 
			114.9,19.6 114.9,19.6 118.2,19.6 118.2,15.4 118.2,15.4 118.2,15.4 120.2,17.4 122.4,19.6 124.7,17.3 124.7,17.3 		"/>
	</g>
	<g>
		<path class="st0" d="M70.5,13c0-1.6-0.6-3.2-1.6-4.3l-1,3.2l-2.2,7.3C68.5,18.6,70.5,16,70.5,13"/>
	</g>
	<g>
		<path id="seven_6_" class="st0" d="M64.5,12h-4.3l-1.1-3.3c-1,1.1-1.6,2.7-1.6,4.3c0,3,2.1,5.6,4.9,6.3l0.1-0.2L64.5,12z"/>
	</g>
	<g>
		<path class="st0" d="M59.7,8.7h5.8h3.4c-1.2-1.4-2.9-2.2-4.9-2.2c-1.9,0-3.7,0.9-4.9,2.2H59.7L59.7,8.7z"/>
	</g>
	<g>
		<path class="st0" d="M68.9,8.7L68.9,8.7C68.9,8.7,68.9,8.7,68.9,8.7L68.9,8.7z"/>
	</g>
	<g>
		<path class="st0" d="M59.1,8.7L59.1,8.7C59.1,8.7,59.1,8.7,59.1,8.7L59.1,8.7z"/>
	</g>
	<g>
		<path class="st0" d="M158,13L158,13C158,13,158,13,158,13c0-3.6-2.9-6.5-6.5-6.5c-3.6,0-6.5,2.9-6.5,6.5s2.9,6.5,6.5,6.5
			c1.2,0,2.3-0.3,3.3-0.9v0.9c0,1.8-1.4,3.2-3.2,3.3c0,0,0,0,0,0c0,0,0,0,0,0v3.3c1.1,0,2.2-0.3,3.2-0.8v0c2-1.1,3.4-3.3,3.4-5.7
			l0,0C158,13.8,158,13.1,158,13C158,13,158,13,158,13C158,13,158,13,158,13 M154.7,13.2c-0.1,1.8-1.5,3.2-3.3,3.2
			c-1.8,0-3.3-1.5-3.3-3.3c0-1.8,1.5-3.3,3.3-3.3c1.8,0,3.2,1.4,3.3,3.2V13.2z"/>
	</g>
	<g>
		<path class="st0" d="M78.4,6.5c-1.2,0-2.3,0.3-3.3,0.9l0-6.4V0h-3.3v1v3.5v5.5v1V13v0l0,0v0h0c0,3.6,2.9,6.5,6.5,6.5
			c3.6,0,6.5-2.9,6.5-6.5C84.9,9.4,82,6.5,78.4,6.5 M78.4,16.3c-1.8,0-3.3-1.5-3.3-3.3c0-1.8,1.5-3.3,3.3-3.3c1.8,0,3.3,1.5,3.3,3.3
			C81.7,14.8,80.2,16.3,78.4,16.3"/>
	</g>
	<g>
		<path class="st0" d="M142.8,9.8L142.8,9.8c-0.6-1-1.4-1.8-2.4-2.4c-2-1.1-4.5-1.2-6.5,0V6.5h-3.3v0v6.3v0.1v0.1V13v3.3v0v3.2h3.3
			l0,0v-3.3h0V13c0-1.8,1.5-3.3,3.3-3.3c1.7,0,3.1,1.3,3.3,3V13v3.3v3.2h3.3l0,0v0v0v0v-6.8C143.6,11.7,143.3,10.7,142.8,9.8"/>
	</g>
	<g>
		<path class="st0" d="M126,6.5v6.4l0,0.1h0c0,0,0,0,0,0v3.3v3.2h3.3l0,0V9.7V6.5L126,6.5L126,6.5z"/>
	</g>
	<path class="st0" d="M49.6,6.6C46,6.6,43,9.5,43,13.1c0,0.6,0.1,1.1,0.2,1.6c0,0,0,0,0,0c0,0,0,0,0,0c0,0,0,0.1,0,0.1c0,0,0,0,0,0
		c0,0,0,0.1,0,0.1c0,0,0,0,0,0c0.8,2.6,3.3,4.6,6.2,4.6c0.1,0,0.2,0,0.3,0c1.6-0.1,3.1-0.8,4.2-1.8l-1.4-1.4l-0.9-0.9h0
		c-0.5,0.5-1.2,0.8-2,0.9l-0.2,0v0c-1.2,0-2.3-0.7-2.8-1.6c1.8,0,7.7,0,7.7,0c0.9,0,1.6-0.7,1.6-1.6c0,0,0,0,0,0
		C56.1,9.5,53.2,6.6,49.6,6.6 M52.4,11.4h-5.6C48,9.3,51.1,9.3,52.4,11.4z"/>
</g>
</svg>
